Homework 03 – The Tidyverse
…
1. Read this data into R directly from the URL using functions from the tidyverse. Print out the tibble (just call the object name).

From URL (not evaluated)

glass <- read_csv("https://www4.stat.ncsu.edu/~online/datasets/glass.data",
  col_names = c("Id","RI","Na","Mg","Al","Si","K","Ca","Ba","Fe","Type_of_glass"))
glass_tbl <- as_tibble(glass)

From File (evaluated)

glass <- read_csv("../Glassdata/glass.data",
col_names = c("Id","RI","Na","Mg","Al","Si","K","Ca","Ba","Fe","Type_of_glass"))
glass_tbl <- as_tibble(glass);glass_tbl;

# A tibble: 214 × 11
      Id    RI    Na    Mg    Al    Si     K    Ca    Ba    Fe Type_of_glass
   <dbl> <dbl> <dbl> <dbl> <dbl> <dbl> <dbl> <dbl> <dbl> <dbl>         <dbl>
 1     1  1.52  13.6  4.49  1.1   71.8  0.06  8.75     0  0                1
 2     2  1.52  13.9  3.6   1.36  72.7  0.48  7.83     0  0                1
 3     3  1.52  13.5  3.55  1.54  73.0  0.39  7.78     0  0                1
 4     4  1.52  13.2  3.69  1.29  72.6  0.57  8.22     0  0                1
 5     5  1.52  13.3  3.62  1.24  73.1  0.55  8.07     0  0                1
 6     6  1.52  12.8  3.61  1.62  73.0  0.64  8.07     0  0.26             1
 7     7  1.52  13.3  3.6   1.14  73.1  0.58  8.17     0  0                1
 8     8  1.52  13.2  3.61  1.05  73.2  0.57  8.24     0  0                1
 9     9  1.52  14.0  3.58  1.37  72.1  0.56  8.3      0  0                1
10    10  1.52  13    3.6   1.36  73.0  0.57  8.4      0  0.11             1
# ℹ 204 more rows

2. Start a chain that would overwrite the Type_of_glass variable using mutate().

glass_tbl <- glass_tbl |>
  mutate(Type_of_glass = case_when(
      Type_of_glass == 1 ~ 'building_windows_float_processed',
      Type_of_glass == 2 ~ 'building_windows_non_float_processed',
      Type_of_glass == 3 ~ 'vehicle_windows_float_processed',
      Type_of_glass == 4 ~ 'vehicle_windows_non_float_processed (non in this database)',
      Type_of_glass == 5 ~ 'containers',
      Type_of_glass == 6 ~ 'tableware',
      Type_of_glass == 7 ~ 'headlamps'))
glass_tbl

# A tibble: 214 × 11
      Id    RI    Na    Mg    Al    Si     K    Ca    Ba    Fe Type_of_glass    
   <dbl> <dbl> <dbl> <dbl> <dbl> <dbl> <dbl> <dbl> <dbl> <dbl> <chr>            
 1     1  1.52  13.6  4.49  1.1   71.8  0.06  8.75     0  0    building_windows…
 2     2  1.52  13.9  3.6   1.36  72.7  0.48  7.83     0  0    building_windows…
 3     3  1.52  13.5  3.55  1.54  73.0  0.39  7.78     0  0    building_windows…
 4     4  1.52  13.2  3.69  1.29  72.6  0.57  8.22     0  0    building_windows…
 5     5  1.52  13.3  3.62  1.24  73.1  0.55  8.07     0  0    building_windows…
 6     6  1.52  12.8  3.61  1.62  73.0  0.64  8.07     0  0.26 building_windows…
 7     7  1.52  13.3  3.6   1.14  73.1  0.58  8.17     0  0    building_windows…
 8     8  1.52  13.2  3.61  1.05  73.2  0.57  8.24     0  0    building_windows…
 9     9  1.52  14.0  3.58  1.37  72.1  0.56  8.3      0  0    building_windows…
10    10  1.52  13    3.6   1.36  73.0  0.57  8.4      0  0.11 building_windows…
# ℹ 204 more rows

3. Continue your chain and keep only observations where the Fe variable is less than 0.2 and the Type of Glass is either “tableware” or “headlamp”. 

glass_tbl <- glass_tbl |> filter(Fe < 0.2 & (Type_of_glass == "tableware" | Type_of_glass == "headlamps"))
glass_tbl

# A tibble: 38 × 11
      Id    RI    Na    Mg    Al    Si     K    Ca    Ba    Fe Type_of_glass
   <dbl> <dbl> <dbl> <dbl> <dbl> <dbl> <dbl> <dbl> <dbl> <dbl> <chr>        
 1   177  1.52  14    2.39  1.56  72.4  0     9.57  0        0 tableware    
 2   178  1.52  13.8  2.41  1.19  72.8  0     9.77  0        0 tableware    
 3   179  1.52  14.5  2.24  1.62  72.4  0     9.26  0        0 tableware    
 4   180  1.52  14.1  2.19  1.66  72.7  0     9.32  0        0 tableware    
 5   181  1.51  14.4  1.74  1.54  74.6  0     7.59  0        0 tableware    
 6   182  1.52  15.0  0.78  1.74  72.5  0     9.95  0        0 tableware    
 7   183  1.52  14.2  0     2.09  72.7  0    10.9   0        0 tableware    
 8   184  1.52  14.6  0     0.56  73.5  0    11.2   0        0 tableware    
 9   185  1.51  17.4  0     0.34  75.4  0     6.65  0        0 tableware    
10   186  1.51  13.7  3.2   1.81  72.8  1.76  5.43  1.19     0 headlamps    
# ℹ 28 more rows
…
From URL (not evaluated)

yeast <- read_csv("https://www4.stat.ncsu.edu/~online/datasets/yeast.data",
  col_names = c("seq_name","mcg","gvh","alm","mit","erl","pox","vac","nuc","class"))
yeast_tbl <- as_tibble(yeast)

From File (evaluated)

yeast <- read_table("../Yeast/yeast.data",
                  col_names = c("seq_name","mcg","gvh","alm","mit","erl","pox","vac","nuc","class"));
yeast_tbl <- as_tibble(yeast);
yeast_tbl;

# A tibble: 1,484 × 10
   seq_name     mcg   gvh   alm   mit   erl   pox   vac   nuc class
   <chr>      <dbl> <dbl> <dbl> <dbl> <dbl> <dbl> <dbl> <dbl> <chr>
 1 ADT1_YEAST  0.58  0.61  0.47  0.13   0.5   0    0.48  0.22 MIT  
 2 ADT2_YEAST  0.43  0.67  0.48  0.27   0.5   0    0.53  0.22 MIT  
 3 ADT3_YEAST  0.64  0.62  0.49  0.15   0.5   0    0.53  0.22 MIT  
 4 AAR2_YEAST  0.58  0.44  0.57  0.13   0.5   0    0.54  0.22 NUC  
 5 AATM_YEAST  0.42  0.44  0.48  0.54   0.5   0    0.48  0.22 MIT  
 6 AATC_YEAST  0.51  0.4   0.56  0.17   0.5   0.5  0.49  0.22 CYT  
 7 ABC1_YEAST  0.5   0.54  0.48  0.65   0.5   0    0.53  0.22 MIT  
 8 BAF1_YEAST  0.48  0.45  0.59  0.2    0.5   0    0.58  0.34 NUC  
 9 ABF2_YEAST  0.55  0.5   0.66  0.36   0.5   0    0.49  0.22 MIT  
10 ABP1_YEAST  0.4   0.39  0.6   0.15   0.5   0    0.58  0.3  CYT  
# ℹ 1,474 more rows

2. Start a chain that removes the seq_name and nuc columns.

yeast_tbl <- yeast_tbl |> mutate(seq_name = NULL, nuc = NULL); yeast_tbl

# A tibble: 1,484 × 8
     mcg   gvh   alm   mit   erl   pox   vac class
   <dbl> <dbl> <dbl> <dbl> <dbl> <dbl> <dbl> <chr>
 1  0.58  0.61  0.47  0.13   0.5   0    0.48 MIT  
 2  0.43  0.67  0.48  0.27   0.5   0    0.53 MIT  
 3  0.64  0.62  0.49  0.15   0.5   0    0.53 MIT  
 4  0.58  0.44  0.57  0.13   0.5   0    0.54 NUC  
 5  0.42  0.44  0.48  0.54   0.5   0    0.48 MIT  
 6  0.51  0.4   0.56  0.17   0.5   0.5  0.49 CYT  
 7  0.5   0.54  0.48  0.65   0.5   0    0.53 MIT  
 8  0.48  0.45  0.59  0.2    0.5   0    0.58 NUC  
 9  0.55  0.5   0.66  0.36   0.5   0    0.49 MIT  
10  0.4   0.39  0.6   0.15   0.5   0    0.58 CYT  
# ℹ 1,474 more rows

3. Continue your chain to add columns corresponding to the mean and median of each numeric variable (mcg, gvh, alm, mit, erl, pox, and vac) at each class grouping (see the across() function as we did in the dplyr video!) 

yeast_tbl <- yeast_tbl |> group_by(class) |> mutate(across(where(is.numeric), mean, .names = "mean_{.col}"),across(where(is.numeric), median, .names = "median_{.col}")); yeast_tbl

# A tibble: 1,484 × 29
# Groups:   class [10]
     mcg   gvh   alm   mit   erl   pox   vac class mean_mcg mean_gvh mean_alm
   <dbl> <dbl> <dbl> <dbl> <dbl> <dbl> <dbl> <chr>    <dbl>    <dbl>    <dbl>
 1  0.58  0.61  0.47  0.13   0.5   0    0.48 MIT      0.521    0.533    0.517
 2  0.43  0.67  0.48  0.27   0.5   0    0.53 MIT      0.521    0.533    0.517
 3  0.64  0.62  0.49  0.15   0.5   0    0.53 MIT      0.521    0.533    0.517
 4  0.58  0.44  0.57  0.13   0.5   0    0.54 NUC      0.452    0.456    0.529
 5  0.42  0.44  0.48  0.54   0.5   0    0.48 MIT      0.521    0.533    0.517
 6  0.51  0.4   0.56  0.17   0.5   0.5  0.49 CYT      0.481    0.470    0.535
 7  0.5   0.54  0.48  0.65   0.5   0    0.53 MIT      0.521    0.533    0.517
 8  0.48  0.45  0.59  0.2    0.5   0    0.58 NUC      0.452    0.456    0.529
 9  0.55  0.5   0.66  0.36   0.5   0    0.49 MIT      0.521    0.533    0.517
10  0.4   0.39  0.6   0.15   0.5   0    0.58 CYT      0.481    0.470    0.535
# ℹ 1,474 more rows
# ℹ 18 more variables: mean_mit <dbl>, mean_erl <dbl>, mean_pox <dbl>,
#   mean_vac <dbl>, median_mcg <dbl>, median_gvh <dbl>, median_alm <dbl>,
#   median_mit <dbl>, median_erl <dbl>, median_pox <dbl>, median_vac <dbl>,
#   median_mean_mcg <dbl>, median_mean_gvh <dbl>, median_mean_alm <dbl>,
#   median_mean_mit <dbl>, median_mean_erl <dbl>, median_mean_pox <dbl>,
#   median_mean_vac <dbl>
…
1. There is an excel version of the white wine data set available at https://www4.stat.ncsu.edu/~online/ datasets/white-wine.xlsx. 

• Download this file 

• Place it in a folder you know (such as your working directory for your project) 

• Import the data from the first sheet using the readxl package 

• Print out the tibble (just call the object name) 

whitewine <- read_delim("../WineQuality/winequality-white.csv", delim = ";")
whitewine <- as_tibble(whitewine)
whitewine

# A tibble: 4,898 × 12
   `fixed acidity` `volatile acidity` `citric acid` `residual sugar` chlorides
             <dbl>              <dbl>         <dbl>            <dbl>     <dbl>
 1             7                 0.27          0.36             20.7     0.045
 2             6.3               0.3           0.34              1.6     0.049
 3             8.1               0.28          0.4               6.9     0.05 
 4             7.2               0.23          0.32              8.5     0.058
 5             7.2               0.23          0.32              8.5     0.058
 6             8.1               0.28          0.4               6.9     0.05 
 7             6.2               0.32          0.16              7       0.045
 8             7                 0.27          0.36             20.7     0.045
 9             6.3               0.3           0.34              1.6     0.049
10             8.1               0.22          0.43              1.5     0.044
# ℹ 4,888 more rows
# ℹ 7 more variables: `free sulfur dioxide` <dbl>,
#   `total sulfur dioxide` <dbl>, density <dbl>, pH <dbl>, sulphates <dbl>,
#   alcohol <dbl>, quality <dbl>
…
• Readthis in using the readr package. Be careful that the columns are read in as the correct type!

• You should replace the variable names as done above

• You should append a column denoting the type as “red”

redwine <- read_delim("../WineQuality/winequality-red.csv", delim = ";")
col_names <- c("fixed acidity","volatile acidity","citric acid","residuall sugar","chlorides","free sulfure dioxide","total sulfur dioxide","density","pH","sulphates","alcohol","quality")
redwine <- as_tibble(redwine)
colnames(redwine) = col_names
redwine <- redwine |> mutate("wine color" = "Red")
redwine

# A tibble: 1,599 × 13
   `fixed acidity` `volatile acidity` `citric acid` `residuall sugar` chlorides
             <dbl>              <dbl>         <dbl>             <dbl>     <dbl>
 1             7.4               0.7           0                  1.9     0.076
 2             7.8               0.88          0                  2.6     0.098
 3             7.8               0.76          0.04               2.3     0.092
 4            11.2               0.28          0.56               1.9     0.075
 5             7.4               0.7           0                  1.9     0.076
 6             7.4               0.66          0                  1.8     0.075
 7             7.9               0.6           0.06               1.6     0.069
 8             7.3               0.65          0                  1.2     0.065
 9             7.8               0.58          0.02               2       0.073
10             7.5               0.5           0.36               6.1     0.071
# ℹ 1,589 more rows
# ℹ 8 more variables: `free sulfure dioxide` <dbl>,
#   `total sulfur dioxide` <dbl>, density <dbl>, pH <dbl>, sulphates <dbl>,
#   alcohol <dbl>, quality <dbl>, `wine color` <chr>

5. Combine these two data sets into one data set. They both have the exact same columns so this is an easy append task!

• Use the dplyr::bind_rows() function (see the help) to create one tibble containing all of the wine data.

comb_wines <- bind_rows(whitewine, redwine)

#also worked
#full_join(whitewine, redwine)

6. Start a chain onr your new combined data object to filter the data to only look at high-quality wines(quality > 6.5) and wines that have a reasonable alcohol value (alcohol < 132).

comb_wines |> filter(quality > 6.5 & alcohol < 132)

# A tibble: 1,277 × 13
   `fixed acidity` `volatile acidity` `citric acid` `residuall sugar` chlorides
             <dbl>              <dbl>         <dbl>             <dbl>     <dbl>
 1             6.6               0.16          0.4                1.5     0.044
 2             6.6               0.17          0.38               1.5     0.032
 3             6.2               0.66          0.48               1.2     0.029
 4             6.2               0.66          0.48               1.2     0.029
 5             6.4               0.31          0.38               2.9     0.038
 6             6.8               0.26          0.42               1.7     0.049
 7             7.2               0.32          0.36               2       0.033
 8             7.4               0.18          0.31               1.4     0.058
 9             6.6               0.25          0.29               1.1     0.068
10             6.2               0.16          0.33               1.1     0.057
# ℹ 1,267 more rows
# ℹ 8 more variables: `free sulfure dioxide` <dbl>,
#   `total sulfur dioxide` <dbl>, density <dbl>, pH <dbl>, sulphates <dbl>,
#   alcohol <dbl>, quality <dbl>, `wine color` <chr>
…
